<?xml version="1.0" encoding="UTF-8"?>
<CustomTab xmlns="http://soap.sforce.com/2006/04/metadata">
    <auraComponent>BarcodeScannerComp</auraComponent>
    <label>Barcode Scanner</label>
    <mobileReady>false</mobileReady>
    <motif>Custom12: Circle</motif>
</CustomTab>
